<?xml version="1.0" encoding="UTF-8" standalone="no"?>
<svg
   width="381.60309mm"
   height="285.34357mm"
   viewBox="0 0 381.60308 285.34356"
   version="1.1"
   id="svg8"
   inkscape:version="1.1.1 (3bf5ae0d25, 2021-09-20)"
   sodipodi:docname="fleche-d.svg"
   inkscape:export-filename="/home/georgesk/Desktop/Chorale/static/fleche-d.png"
   inkscape:export-xdpi="1.9968392"
   inkscape:export-ydpi="1.9968392"
   xmlns:inkscape="http://www.inkscape.org/namespaces/inkscape"
   xmlns:sodipodi="http://sodipodi.sourceforge.net/DTD/sodipodi-0.dtd"
   xmlns:xlink="http://www.w3.org/1999/xlink"
   xmlns="http://www.w3.org/2000/svg"
   xmlns:svg="http://www.w3.org/2000/svg"
   xmlns:rdf="http://www.w3.org/1999/02/22-rdf-syntax-ns#"
   xmlns:cc="http://creativecommons.org/ns#"
   xmlns:dc="http://purl.org/dc/elements/1.1/">
  <defs
     id="defs2">
    <linearGradient
       inkscape:collect="always"
       id="linearGradient926">
      <stop
         style="stop-color:#3e007a;stop-opacity:1"
         offset="0"
         id="stop922" />
      <stop
         style="stop-color:#ead3ff;stop-opacity:1"
         offset="1"
         id="stop924" />
    </linearGradient>
    <linearGradient
       inkscape:collect="always"
       xlink:href="#linearGradient926"
       id="linearGradient928"
       x1="968.77332"
       y1="872.39246"
       x2="974.88086"
       y2="1760.3574"
       gradientUnits="userSpaceOnUse" />
    <filter
       style="color-interpolation-filters:sRGB"
       inkscape:label="Drop Shadow"
       id="filter940"
       x="-0.51831999"
       y="-0.30870611"
       width="2.0378038"
       height="1.6162115">
      <feFlood
         flood-opacity="0.498039"
         flood-color="rgb(247,249,146)"
         result="flood"
         id="feFlood930" />
      <feComposite
         in="flood"
         in2="SourceGraphic"
         operator="in"
         result="composite1"
         id="feComposite932" />
      <feGaussianBlur
         in="composite1"
         stdDeviation="14.6886"
         result="blur"
         id="feGaussianBlur934" />
      <feOffset
         dx="0.204266"
         dy="-0.483143"
         result="offset"
         id="feOffset936" />
      <feComposite
         in="SourceGraphic"
         in2="offset"
         operator="over"
         result="fbSourceGraphic"
         id="feComposite938" />
      <feColorMatrix
         result="fbSourceGraphicAlpha"
         in="fbSourceGraphic"
         values="0 0 0 -1 0 0 0 0 -1 0 0 0 0 -1 0 0 0 0 1 0"
         id="feColorMatrix942" />
      <feFlood
         id="feFlood944"
         flood-opacity="0.498039"
         flood-color="rgb(247,249,146)"
         result="flood"
         in="fbSourceGraphic" />
      <feComposite
         in2="fbSourceGraphic"
         id="feComposite946"
         in="flood"
         operator="in"
         result="composite1" />
      <feGaussianBlur
         id="feGaussianBlur948"
         in="composite1"
         stdDeviation="49.6675"
         result="blur" />
      <feOffset
         id="feOffset950"
         dx="0.204266"
         dy="-0.483143"
         result="offset" />
      <feComposite
         in2="offset"
         id="feComposite952"
         in="fbSourceGraphic"
         operator="over"
         result="fbSourceGraphic" />
      <feColorMatrix
         result="fbSourceGraphicAlpha"
         in="fbSourceGraphic"
         values="0 0 0 -1 0 0 0 0 -1 0 0 0 0 -1 0 0 0 0 1 0"
         id="feColorMatrix954" />
      <feFlood
         id="feFlood956"
         flood-opacity="0.886275"
         flood-color="rgb(247,249,146)"
         result="flood"
         in="fbSourceGraphic" />
      <feComposite
         in2="fbSourceGraphic"
         id="feComposite958"
         in="flood"
         operator="in"
         result="composite1" />
      <feGaussianBlur
         id="feGaussianBlur960"
         in="composite1"
         stdDeviation="49.6675"
         result="blur" />
      <feOffset
         id="feOffset962"
         dx="0.204266"
         dy="-0.483143"
         result="offset" />
      <feComposite
         in2="offset"
         id="feComposite964"
         in="fbSourceGraphic"
         operator="over"
         result="composite2" />
    </filter>
  </defs>
  <sodipodi:namedview
     id="base"
     pagecolor="#ffffff"
     bordercolor="#666666"
     borderopacity="1.0"
     inkscape:pageopacity="0.0"
     inkscape:pageshadow="2"
     inkscape:zoom="0.35"
     inkscape:cx="142.85714"
     inkscape:cy="927.14286"
     inkscape:document-units="mm"
     inkscape:current-layer="layer1"
     inkscape:document-rotation="0"
     showgrid="false"
     inkscape:window-width="1572"
     inkscape:window-height="961"
     inkscape:window-x="44"
     inkscape:window-y="19"
     inkscape:window-maximized="0"
     inkscape:pagecheckerboard="0" />
  <metadata
     id="metadata5">
    <rdf:RDF>
      <cc:Work
         rdf:about="">
        <dc:format>image/svg+xml</dc:format>
        <dc:type
           rdf:resource="http://purl.org/dc/dcmitype/StillImage" />
      </cc:Work>
    </rdf:RDF>
  </metadata>
  <g
     inkscape:label="Calque 1"
     inkscape:groupmode="layer"
     id="layer1"
     transform="translate(-67.496491,-204.95315)">
    <path
       id="rect92"
       style="fill:url(#linearGradient928);fill-opacity:1;stroke:#000000;stroke-width:0.755906;filter:url(#filter940)"
       d="m 803.96484,867.97461 c -2.86953,0 -5.17968,2.31019 -5.17968,5.17969 v 428.1406 l -86.61914,-0.3594 262.71484,459.4219 266.51364,-457.2285 -86.6152,-0.3594 V 873.1543 c 0,-2.8695 -2.3102,-5.17969 -5.1797,-5.17969 z"
       transform="matrix(0,-0.26458333,0.26458333,0,-89.266644,606.14619)" />
  </g>
</svg>
